{
  "sessions": [
    {
      "color": "blue",
      "detail": "We will make our own way to Will to Win Hyde park. People may choose to group up and get an Uber (around 25 minutes), get the Picadilly Line (25 minutes) or get the bus (40 minutes). For more information about the location please see the locations tab. We all need to be in Hyde Park by 1:50pm.",
      "time": "1:05pm",
      "title": "Commute to Hyde Park"
    },
    {
      "color": "blue",
      "detail": "We will arrive at Will to Win at 1:50pm at the latest. Here we will get split up into two groups. One group will play bowls first while the other will play rounders. After this we will switch. For bowls we will be split up into groups of three and for rounders we will be split up into groups of fifteen.",
      "linkText": "List of Groups",
      "link": "https://docs.google.com/spreadsheets/d/16ELvXCsZy4kauraUqIb8BFuE32aXFJCHTqEeMQ4I66k/edit?usp=sharing",
      "time": "1:50pm",
      "title": "Arrival and Intro at Will to Win"
    },
    {
      "color": "blue",
      "detail": "In round one Team A will play bowls - coached and organised by Commonwealth legend Andrew Newell. Team B will play rounders. We will have roughly 90 minutes of activity before switching sports.",
      "time": "2:00pm",
      "title": "Round One"
    },
    {
      "color": "blue",
      "detail": "In round two Team A will play rounders and Team B will play bowls.",
      "time": "3:30pm",
      "title": "Round Two"
    },
    {
      "color": "blue",
      "detail": "After the activities are finished we will have Sweet Momma's American Grill BBQ and unlimited drinks. There will be optional activities of frisbee (led by Alec Buchanan) and circus tricks (led by Chris Mason). The evening will be soundtracked by superstar Dekker DJs. Expect to hear a mixture of house, disco, garage and old school hip hop. The evening will last roughly three hours.",
      "time": "5:00pm",
      "title": "BBQ and Drinks"
    },
    {
      "color": "blue",
      "detail": "When the evening is done each of us can then either head home (boring) or see where the night takes us.",
      "time": "8:00pm",
      "title": "Who Knows?"
    }
  ]
}
