{
  "sessions": [
    {
      "color": "blue",
      "detail": "We will arrive at Henrietta Street at 9am and have breakfast together.",
      "time": "9:00am",
      "title": "Arrival at Henrietta Street"
    },
    {
      "color": "blue",
      "detail": "Simon will give an introduction to the day on The Dekk Stage.",
      "time": "9:30am",
      "title": "Simon Intro"
    },
    {
      "acts": [
        {
          "stage": "dekk",
          "stageName": "The Dekk",
          "act": "CNI"
        },
        {
          "stage": "starboard",
          "stageName": "Starboard",
          "act": "Bestway"
        },
        {
          "stage": "lighthouse",
          "stageName": "Lighthouse",
          "act": "Grainger"
        },
        {
          "stage": "portside",
          "stageName": "Portside",
          "act": "A&O"
        },
        {
          "stage": "net",
          "stageName": "The Net",
          "act": "BA"
        },
        {
          "stage": "anchor",
          "stageName": "Anchor",
          "act": "HoF"
        },
        {
          "stage": "cove",
          "stageName": "The Cove",
          "act": "Santander"
        }
      ],
      "color": "blue",
      "detail": "Each ANDi will be able to visit three separate talks in each round of the morning session. Each talk will last ten minutes and there will be five minutes to move to other stages between talks. Round one concerns the Dekker clients. The rundown of which talk is on which stage can be found below:",
      "time": "10:00am",
      "title": "Round A - Dekker Clients"
    },
    {
      "color": "blue",
      "detail": "",
      "time": "10:45am",
      "title": "Coffee Break"
    },
    {
      "acts": [
        {
          "stage": "dekk",
          "stageName": "The Dekk",
          "act": "Guide"
        },
        {
          "stage": "starboard",
          "stageName": "Starboard",
          "act": "Guide - Organised Design"
        },
        {
          "stage": "lighthouse",
          "stageName": "Lighthouse",
          "act": "Turing"
        },
        {
          "stage": "portside",
          "stageName": "Portside",
          "act": "Why Not? by Paramjit Uppal"
        },
        {
          "stage": "net",
          "stageName": "The Net",
          "act": "Guide - Product"
        },
        {
          "stage": "anchor",
          "stageName": "Anchor",
          "act": "Teach"
        },
        {
          "stage": "cove",
          "stageName": "The Cove",
          "act": "Guide - Tech"
        }
      ],
      "color": "blue",
      "detail": "Round two concerns the wider AND community. The rundown of which talk is on which stage can be found below:",
      "time": "11:00am",
      "title": "Round B - Wider AND"
    },
    {
      "color": "blue",
      "detail": "",
      "time": "11:45am",
      "title": "Change Over"
    },
    {
      "acts": [
        {
          "stage": "dekk",
          "stageName": "The Dekk",
          "act": "Product Management"
        },
        {
          "stage": "starboard",
          "stageName": "Starboard",
          "act": "Introduction to PWAs and Mobify"
        },
        {
          "stage": "lighthouse",
          "stageName": "Lighthouse",
          "act": "Building High Performance Teams"
        },
        {
          "stage": "portside",
          "stageName": "Portside",
          "act": "How to Sleep Better"
        },
        {
          "stage": "net",
          "stageName": "The Net",
          "act": "My Experience in Kilburn"
        },
        {
          "stage": "anchor",
          "stageName": "Anchor",
          "act": "A History of Beer"
        },
        {
          "stage": "cove",
          "stageName": "The Cove",
          "act": "Business Development - No More Than People and Processes"
        }
      ],
      "color": "blue",
      "detail": "Round three includes lightning talks about both business and non-business subjects from some Dekker ANDis. The rundown of which talk is on which stage can be found below:",
      "time": "11:55am",
      "title": "Round C - Lightning Talks"
    },
    {
      "acts": [
        {
          "stage": "dekk",
          "stageName": "The Dekk",
          "act": "Front-End"
        },
        {
          "stage": "starboard",
          "stageName": "Starboard",
          "act": "UX and Creative"
        },
        {
          "stage": "lighthouse",
          "stageName": "Lighthouse",
          "act": "Back-End"
        },
        {
          "stage": "portside",
          "stageName": "Portside",
          "act": "Analyst"
        },
        {
          "stage": "net",
          "stageName": "The Net",
          "act": "DevOps"
        },
        {
          "stage": "anchor",
          "stageName": "Anchor",
          "act": "Mobile and Architecture"
        },
        {
          "stage": "cove",
          "stageName": "The Cove",
          "act": "Product"
        }
      ],
      "color": "blue",
      "detail": "We will have a lunch of sandwiches and snacks with our chosen guilds. Each guild will be positioned at a separate stage. Please find your guild's location below:",
      "time": "12:35pm",
      "title": "Lunch"
    }
  ]
}
